[gd_scene load_steps=4 format=2]

[ext_resource path="res://src/scripts/board.gd" type="Script" id=1]
[ext_resource path="res://src/scenes/tile.tscn" type="PackedScene" id=2]
[ext_resource path="res://src/scenes/player.tscn" type="PackedScene" id=3]

[node name="board" type="Node2D"]
script = ExtResource( 1 )
tiles_scene = ExtResource( 2 )
player_scene = ExtResource( 3 )

[node name="reset_button" type="Button" parent="."]
margin_left = 932.0
margin_top = 1.0
margin_right = 1022.0
margin_bottom = 50.0
text = "reset"
__meta__ = {
"_edit_use_anchors_": false
}

[node name="score" type="Label" parent="."]
margin_left = 844.0
margin_top = 9.0
margin_right = 923.0
margin_bottom = 51.0
__meta__ = {
"_edit_use_anchors_": false
}

[node name="current_player_label" type="Label" parent="."]
margin_left = 853.0
margin_top = 59.0
margin_right = 1012.0
margin_bottom = 91.0
__meta__ = {
"_edit_use_anchors_": false
}
[connection signal="pressed" from="reset_button" to="." method="_on_reset_button_pressed"]
